<svg id="Group_126" data-name="Group 126" xmlns="http://www.w3.org/2000/svg" width="10.912" height="23.488" viewBox="0 0 10.912 23.488">
  <path id="Path_231" data-name="Path 231" d="M586.077,298.231q-.018-.133-.037-.267a3.645,3.645,0,0,1,.234-1.607l.263.227c.581.48.093,1.1.224,1.645-.074,0-.149.006-.224.007Z" transform="translate(-580.979 -286.324)" fill="#272727"/>
  <path id="Path_232" data-name="Path 232" d="M586.823,299.071l-.365.907c-.163-.319-1.045-.637,0-.958Z" transform="translate(-580.933 -287.756)" fill="#272727"/>
  <path id="Path_233" data-name="Path 233" d="M586.131,300.411l.46.005.226.706c-.25.165-.011.314.016.47l-.243.245a.46.46,0,0,0-.236.464C585.886,301.717,586.214,301.04,586.131,300.411Z" transform="translate(-581.009 -288.504)" fill="#272727"/>
  <path id="Path_234" data-name="Path 234" d="M577.5,286.488v11.356a.3.3,0,0,0,.3.3h4.217a.3.3,0,0,0,.3-.3V286.3h3.057a.3.3,0,0,0,.294-.271l.294-3.477a.3.3,0,0,0-.295-.321H582.3v-2.467a1.047,1.047,0,0,1,1.047-1.047h2.356a.3.3,0,0,0,.3-.3v-3.477a.3.3,0,0,0-.3-.3h-3.982a4.23,4.23,0,0,0-4.23,4.23v3.352h-2.108a.3.3,0,0,0-.3.3v3.477a.3.3,0,0,0,.3.3H577.5Z" transform="translate(-575.091 -274.652)" fill="#272727" fill-rule="evenodd"/>
</svg>
