<svg id="Group_256" data-name="Group 256" xmlns="http://www.w3.org/2000/svg" width="20.537" height="20.537" viewBox="0 0 20.537 20.537">
  <path id="Path_235" data-name="Path 235" d="M702.351,274h-8.164A6.186,6.186,0,0,0,688,280.186v8.165a6.186,6.186,0,0,0,6.186,6.186h8.164a6.186,6.186,0,0,0,6.186-6.186v-8.165A6.186,6.186,0,0,0,702.351,274Zm4.249,14.351a4.249,4.249,0,0,1-4.249,4.248h-8.164a4.249,4.249,0,0,1-4.249-4.248v-8.165a4.249,4.249,0,0,1,4.249-4.248h8.164a4.249,4.249,0,0,1,4.249,4.248Z" transform="translate(-688 -274)" fill="#e9f1db"/>
  <path id="Path_236" data-name="Path 236" d="M726.533,283.758a1.207,1.207,0,1,0,1.207,1.207A1.207,1.207,0,0,0,726.533,283.758Z" transform="translate(-710.863 -279.977)" fill="#e9f1db"/>
  <path id="Path_237" data-name="Path 237" d="M706.573,287.753a5.072,5.072,0,1,0,5.072,5.072A5.078,5.078,0,0,0,706.573,287.753Zm0,8.321a3.249,3.249,0,1,1,3.249-3.249A3.252,3.252,0,0,1,706.573,296.074Z" transform="translate(-696.269 -282.424)" fill="#e9f1db"/>
</svg>
