<svg xmlns="http://www.w3.org/2000/svg" width="21.73" height="25.518" viewBox="0 0 21.73 25.518">
  <g id="icono-seguridad" transform="translate(0 0)">
    <path id="Path_22" data-name="Path 22" d="M59.705,6.923V6.9c-.011-.245-.018-.5-.023-.793a2.7,2.7,0,0,0-2.546-2.649A10.5,10.5,0,0,1,49.992.45L49.976.434a1.633,1.633,0,0,0-2.219,0L47.74.45A10.5,10.5,0,0,1,40.6,3.461,2.7,2.7,0,0,0,38.05,6.11c0,.287-.012.546-.023.793v.046c-.057,2.992-.128,6.715,1.118,10.095a12.85,12.85,0,0,0,3.083,4.8,16.127,16.127,0,0,0,6.033,3.568,1.873,1.873,0,0,0,.247.067,1.826,1.826,0,0,0,.718,0,1.871,1.871,0,0,0,.248-.068,16.137,16.137,0,0,0,6.027-3.57,12.869,12.869,0,0,0,3.083-4.8C59.833,13.651,59.762,9.92,59.705,6.923Zm-2.528,9.6c-1.314,3.562-4,6.008-8.2,7.478a.379.379,0,0,1-.048.013.336.336,0,0,1-.132,0A.372.372,0,0,1,48.753,24c-4.208-1.467-6.891-3.912-8.2-7.474-1.148-3.115-1.083-6.533-1.026-9.548V6.961c.012-.259.019-.531.024-.829A1.2,1.2,0,0,1,40.68,4.956a13.138,13.138,0,0,0,4.459-.981,11.667,11.667,0,0,0,3.634-2.441.138.138,0,0,1,.185,0,11.671,11.671,0,0,0,3.634,2.441,13.138,13.138,0,0,0,4.459.981,1.2,1.2,0,0,1,1.133,1.177c0,.3.012.571.024.829C58.266,9.98,58.329,13.4,57.178,16.522Z" transform="translate(-38.001 0.001)" fill="#272727"/>
    <path id="Path_23" data-name="Path 23" d="M134.758,128.41a6.36,6.36,0,1,0,6.359,6.359A6.367,6.367,0,0,0,134.758,128.41Zm0,11.222a4.862,4.862,0,1,1,4.862-4.862A4.868,4.868,0,0,1,134.758,139.632Z" transform="translate(-123.894 -122.01)" fill="#272727"/>
    <path id="Path_24" data-name="Path 24" d="M196.707,212.21l-2.954,2.954-.8-.8a.749.749,0,1,0-1.059,1.059l1.331,1.331a.749.749,0,0,0,1.059,0l3.483-3.483a.749.749,0,1,0-1.059-1.059Z" transform="translate(-184.015 -201.425)" fill="#272727"/>
  </g>
</svg>
